{
    "en": {
        "mail": {
            "registration": {
                "confirmation": {
                    "subject": "Registration confirmation",
                    "body": ["Welcome! To complete registration click to [{{{url}}}]({{{url}}})"]
                }
            },
            "recovery": {
                "request": {
                    "subject": "Recover password request",
                    "body": ["Hi! To create new password follow to [{{{url}}}]({{{url}}})"]
                }
            },
            "deletion": {
                "information": {
                    "subject": "Registration terminated",
                    "body": ["Hi! Sad to inform that you are no longer posess access for [{{{url}}}]({{{url}}}) website. You may register again if you change your mind! Bye!"]
                }
            }
        }
    }
}
